Capítulo 4 Importação e Manipulação de dados | Estatística Computacional com o R
…
A manipulação de dados consiste na transformação de dados de uma base “crua” para uma base que se possa trabalhar e extrair informações. Alguns pacotes úteis no R para esta finalidade são os pacotes dplyr e tidyr. Eles utilizam como inputs dados no formato de tibbles.

4.2.1 Tibbles

Tibbles são estruturas de dados mais “amigáveis”.

# Para instalar e carregar
# install.packages("tibble")
library(tibble)

Para criar um tibble com a função as_tibble:

as_tibble(mtcars)

## # A tibble: 32 × 11
##      mpg   cyl  disp    hp  drat    wt  qsec    vs    am  gear  carb
##    <dbl> <dbl> <dbl> <dbl> <dbl> <dbl> <dbl> <dbl> <dbl> <dbl> <dbl>
##  1  21       6  160    110  3.9   2.62  16.5     0     1     4     4
##  2  21       6  160    110  3.9   2.88  17.0     0     1     4     4
##  3  22.8     4  108     93  3.85  2.32  18.6     1     1     4     1
##  4  21.4     6  258    110  3.08  3.22  19.4     1     0     3     1
##  5  18.7     8  360    175  3.15  3.44  17.0     0     0     3     2
##  6  18.1     6  225    105  2.76  3.46  20.2     1     0     3     1
##  7  14.3     8  360    245  3.21  3.57  15.8     0     0     3     4
##  8  24.4     4  147.    62  3.69  3.19  20       1     0     4     2
##  9  22.8     4  141.    95  3.92  3.15  22.9     1     0     4     2
## 10  19.2     6  168.   123  3.92  3.44  18.3     1     0     4     4
## # ℹ 22 more rows
…
Função select (seleciona colunas)

## Selecionando a coluna título:
# Sem o operador Pipe:
select(data_imdb, titulo)

## # A tibble: 11,340 × 1
##    titulo                           
##    <chr>                            
##  1 Broadcast News                   
##  2 Murder, He Says                  
##  3 Me, Myself & Irene               
##  4 Never Give a Sucker an Even Break
##  5 Adam & Steve                     
##  6 Henry Gamble's Birthday Party    
##  7 No Way Out                       
##  8 Welcome Home, Roscoe Jenkins     
##  9 Some Kind of Wonderful           
## 10 The Family That Preys            
## # ℹ 11,330 more rows

# Com o operador Pipe:
data_imdb %>%
  select(titulo)

## Selecionando as colunas título, ano e orcamento:
# Sem o operador Pipe:
select(data_imdb, titulo, ano, orcamento)

## # A tibble: 11,340 × 3
##    titulo                              ano orcamento
##    <chr>                             <dbl>     <dbl>
##  1 Broadcast News                     1987  20000000
##  2 Murder, He Says                    1945        NA
##  3 Me, Myself & Irene                 2000  51000000
##  4 Never Give a Sucker an Even Break  1941        NA
##  5 Adam & Steve                       2005        NA
##  6 Henry Gamble's Birthday Party      2015        NA
##  7 No Way Out                         1987  15000000
##  8 Welcome Home, Roscoe Jenkins       2008  35000000
##  9 Some Kind of Wonderful             1987        NA
## 10 The Family That Preys              2008        NA
## # ℹ 11,330 more rows

# Com o operador Pipe:
data_imdb %>%
  select(titulo, ano, orcamento)

Selecionando uma sequencia de colunas dos dados

select(data_imdb, titulo:generos)

## # A tibble: 11,340 × 4
##    titulo                              ano data_lancamento generos              
##    <chr>                             <dbl> <chr>           <chr>                
##  1 Broadcast News                     1987 1988-04-01      Comedy, Drama, Roman…
##  2 Murder, He Says                    1945 1945-06-23      Comedy, Crime, Myste…
##  3 Me, Myself & Irene                 2000 2000-09-08      Comedy               
##  4 Never Give a Sucker an Even Break  1941 1947-05-02      Comedy, Musical      
##  5 Adam & Steve                       2005 2007-05-17      Comedy, Drama, Music 
##  6 Henry Gamble's Birthday Party      2015 2016-01-08      Drama                
##  7 No Way Out                         1987 1987-12-11      Action, Crime, Drama 
##  8 Welcome Home, Roscoe Jenkins       2008 2008-02-08      Comedy, Romance      
##  9 Some Kind of Wonderful             1987 1988-01-13      Drama, Romance       
## 10 The Family That Preys              2008 2008-09-12      Drama                
## # ℹ 11,330 more rows
…
Funções úteis que podem ser usadas com a função select():

starts_with(): colunas que começam com um texto especificado

ends_with(): colunas que terminam com um texto especificado

contains(): colunas que contêm um texto especificado

Exemplos:

## Selecionando colunas que começam com o texto "num".
select(data_imdb, starts_with("num"))

## # A tibble: 11,340 × 3
##    num_avaliacoes num_criticas_publico num_criticas_critica
##             <dbl>                <dbl>                <dbl>
##  1          26257                  142                   62
##  2           1639                   35                   10
##  3         219069                  502                  161
##  4           2108                   35                   18
##  5           2953                   48                   15
##  6           2364                   26                   14
##  7          34513                  125                   72
##  8          13315                   45                   74
##  9          27065                  145                   55
## 10           6703                   52                   29
## # ℹ 11,330 more rows

## Selecionando colunas que terminam com o texto "cao".
select(data_imdb, ends_with("cao"))

## # A tibble: 11,340 × 4
##    duracao direcao                        producao                     descricao
##      <dbl> <chr>                          <chr>                        <chr>    
##  1     133 James L. Brooks                Amercent Films               Take two…
##  2      91 George Marshall                Paramount Pictures           A pollst…
##  3     116 Bobby Farrelly, Peter Farrelly Twentieth Century Fox        A nice-g…
##  4      71 Edward F. Cline                Universal Pictures           A filmma…
##  5      99 Craig Chester                  Funny Boy Films              Follows …
##  6      87 Stephen Cone                   Chicago Media Project        Preacher…
##  7     114 Roger Donaldson                Orion Pictures               A coveru…
##  8     104 Malcolm D. Lee                 Universal Pictures           Dr. RJ S…
##  9      95 Howard Deutch                  Hughes Entertainment         When Kei…
## 10     111 Tyler Perry                    Louisiana Producers Film So… Two fami…
## # ℹ 11,330 more rows

## Selecionando colunas que contém "_".
select(data_imdb, contains("_"))

## # A tibble: 11,340 × 7
##    id_filme  data_lancamento receita_eua nota_imdb num_avaliacoes
##    <chr>     <chr>                 <dbl>     <dbl>          <dbl>
##  1 tt0092699 1988-04-01         51249404       7.2          26257
##  2 tt0037931 1945-06-23               NA       7.1           1639
##  3 tt0183505 2000-09-08         90570999       6.6         219069
##  4 tt0033945 1947-05-02               NA       7.2           2108
##  5 tt0372122 2007-05-17           309404       5.9           2953
##  6 tt3703836 2016-01-08               NA       6.1           2364
##  7 tt0093640 1987-12-11         35509515       7.1          34513
##  8 tt0494652 2008-02-08         42436517       5.5          13315
##  9 tt0094006 1988-01-13         18553948       7.1          27065
## 10 tt1142798 2008-09-12         37105289       5.7           6703
## # ℹ 11,330 more rows
## # ℹ 2 more variables: num_criticas_publico <dbl>, num_criticas_critica <dbl>

Para remover colunas, adicionar “-” antes dos nomes:

select(data_imdb, -c(ano, direcao))

## # A tibble: 11,340 × 18
##    id_filme  titulo       data_lancamento generos duracao pais  idioma orcamento
##    <chr>     <chr>        <chr>           <chr>     <dbl> <chr> <chr>      <dbl>
##  1 tt0092699 Broadcast N… 1988-04-01      Comedy…     133 USA   Engli…  20000000
##  2 tt0037931 Murder, He … 1945-06-23      Comedy…      91 USA   Engli…        NA
##  3 tt0183505 Me, Myself … 2000-09-08      Comedy      116 USA   Engli…  51000000
##  4 tt0033945 Never Give … 1947-05-02      Comedy…      71 USA   Engli…        NA
##  5 tt0372122 Adam & Steve 2007-05-17      Comedy…      99 USA   Engli…        NA
##  6 tt3703836 Henry Gambl… 2016-01-08      Drama        87 USA   Engli…        NA
##  7 tt0093640 No Way Out   1987-12-11      Action…     114 USA   Engli…  15000000
##  8 tt0494652 Welcome Hom… 2008-02-08      Comedy…     104 USA   Engli…  35000000
##  9 tt0094006 Some Kind o… 1988-01-13      Drama,…      95 USA   Engli…        NA
## 10 tt1142798 The Family … 2008-09-12      Drama       111 USA   Engli…        NA
## # ℹ 11,330 more rows
## # ℹ 10 more variables: receita <dbl>, receita_eua <dbl>, nota_imdb <dbl>,
## #   num_avaliacoes <dbl>, roteiro <chr>, producao <chr>, elenco <chr>,
## #   descricao <chr>, num_criticas_publico <dbl>, num_criticas_critica <dbl>

Função arrange (ordena a base)

## Ordenando os dados (crescente) pelo orcamento
arrange(data_imdb, orcamento)

## # A tibble: 11,340 × 20
##    id_filme  titulo   ano data_lancamento generos duracao pais  idioma orcamento
##    <chr>     <chr>  <dbl> <chr>           <chr>     <dbl> <chr> <chr>      <dbl>
##  1 tt5345298 Patie…  2016 2016-10-11      Horror      116 USA   Icela…         0
##  2 tt7692822 Driven  2019 2019-02-09      Comedy…      90 USA   Engli…         0
##  3 tt3748918 To Yo…  2019 2020-03-17      Animat…      91 USA   Engli…         1
##  4 tt8196068 Twist…  2018 2018-10-03      Drama,…      89 USA   Engli…         3
##  5 tt0772152 Amate…  2006 2006-07-30      Crime,…      71 USA   Engli…        45
##  6 tt1260680 Pathf…  2011 2011-01-11      Action…     100 USA   Engli…        50
##  7 tt1701224 My Na…  2012 2012-10-19      Crime,…      90 USA   Frenc…       300
##  8 tt0054880 Flami…  1963 1963-04-29      Comedy…      45 USA   Engli…       300
##  9 tt1980185 Memor…  2012 2014-03-10      Crime,…      70 USA   Engli…       300
## 10 tt5009236 King …  2015 2015-03-27      Biogra…      46 USA   Engli…       500
## # ℹ 11,330 more rows
## # ℹ 11 more variables: receita <dbl>, receita_eua <dbl>, nota_imdb <dbl>,
## #   num_avaliacoes <dbl>, direcao <chr>, roteiro <chr>, producao <chr>,
## #   elenco <chr>, descricao <chr>, num_criticas_publico <dbl>,
## #   num_criticas_critica <dbl>

# Ordenando os dados (decrescente) pelo orcamento
arrange(data_imdb, desc(orcamento))

## # A tibble: 11,340 × 20
##    id_filme  titulo   ano data_lancamento generos duracao pais  idioma orcamento
##    <chr>     <chr>  <dbl> <chr>           <chr>     <dbl> <chr> <chr>      <dbl>
##  1 tt4154796 Aveng…  2019 2019-04-24      Action…     181 USA   Engli… 356000000
##  2 tt4154756 Aveng…  2018 2018-04-25      Action…     149 USA   Engli… 321000000
##  3 tt2527336 Star …  2017 2017-12-13      Action…     152 USA   Engli… 317000000
##  4 tt0449088 Pirat…  2007 2007-05-23      Action…     169 USA   Engli… 300000000
##  5 tt2527338 Star …  2019 2019-12-18      Action…     141 USA   Engli… 275000000
##  6 tt3778644 Solo:…  2018 2018-05-23      Action…     135 USA   Engli… 275000000
##  7 tt0348150 Super…  2006 2006-09-01      Action…     154 USA   Engli… 270000000
##  8 tt0398286 Tangl…  2010 2010-11-26      Animat…     100 USA   Engli… 260000000
##  9 tt0413300 Spide…  2007 2007-05-01      Action…     139 USA   Engli… 258000000
## 10 tt2975590 Batma…  2016 2016-03-23      Action…     152 USA   Engli… 250000000
## # ℹ 11,330 more rows
## # ℹ 11 more variables: receita <dbl>, receita_eua <dbl>, nota_imdb <dbl>,
## #   num_avaliacoes <dbl>, direcao <chr>, roteiro <chr>, producao <chr>,
## #   elenco <chr>, descricao <chr>, num_criticas_publico <dbl>,
## #   num_criticas_critica <dbl>

# Ordenando em relação a duas ou mais colunas.
arrange(data_imdb, desc(ano), desc(orcamento))

## # A tibble: 11,340 × 20
##    id_filme  titulo   ano data_lancamento generos duracao pais  idioma orcamento
##    <chr>     <chr>  <dbl> <chr>           <chr>     <dbl> <chr> <chr>      <dbl>
##  1 tt6587640 Troll…  2020 2020-04-10      Animat…      90 USA   Engli…  90000000
##  2 tt7713068 Birds…  2020 2020-02-06      Action…     109 USA   Engli…  84500000
##  3 tt5774060 Under…  2020 2020-01-30      Action…      95 USA   Engli…  80000000
##  4 tt6820324 Timmy…  2020 2020-03-24      Advent…      99 USA   Engli…  45000000
##  5 tt1634106 Blood…  2020 2020-03-27      Action…     109 USA   Engli…  45000000
##  6 tt100595… Unhin…  2020 2020-09-24      Action…      90 USA   Engli…  33000000
##  7 tt8461224 The T…  2020 2020-08-07      Action…      95 USA   Engli…  30000000
##  8 tt103089… Force…  2020 2020-06-30      Action…      91 USA   Engli…  23000000
##  9 tt4411584 The S…  2020 2020-07-31      Drama,…     107 USA   Engli…  21000000
## 10 tt8244784 The H…  2020 2020-03-24      Action…      90 USA   Engli…  14000000
## # ℹ 11,330 more rows
## # ℹ 11 more variables: receita <dbl>, receita_eua <dbl>, nota_imdb <dbl>,
## #   num_avaliacoes <dbl>, direcao <chr>, roteiro <chr>, producao <chr>,
## #   elenco <chr>, descricao <chr>, num_criticas_publico <dbl>,
## #   num_criticas_critica <dbl>
…
Função mutate

Usado para modificar uma coluna existente ou criar uma nova coluna.

# Transformando a variável duracao de minutos para horas:
data_imdb %>% mutate(duracao = duracao/60)
# Ou criando uma nova variável:
data_imdb %>% mutate(duracao_horas = duracao/60)

## # A tibble: 11,340 × 6
##    id_filme  titulo                          ano data_lancamento generos duracao
##    <chr>     <chr>                         <dbl> <chr>           <chr>     <dbl>
##  1 tt0092699 Broadcast News                 1987 1988-04-01      Comedy…    2.22
##  2 tt0037931 Murder, He Says                1945 1945-06-23      Comedy…    1.52
##  3 tt0183505 Me, Myself & Irene             2000 2000-09-08      Comedy     1.93
##  4 tt0033945 Never Give a Sucker an Even …  1941 1947-05-02      Comedy…    1.18
##  5 tt0372122 Adam & Steve                   2005 2007-05-17      Comedy…    1.65
##  6 tt3703836 Henry Gamble's Birthday Party  2015 2016-01-08      Drama      1.45
##  7 tt0093640 No Way Out                     1987 1987-12-11      Action…    1.9 
##  8 tt0494652 Welcome Home, Roscoe Jenkins   2008 2008-02-08      Comedy…    1.73
##  9 tt0094006 Some Kind of Wonderful         1987 1988-01-13      Drama,…    1.58
## 10 tt1142798 The Family That Preys          2008 2008-09-12      Drama      1.85
## # ℹ 11,330 more rows

## # A tibble: 11,340 × 7
##    id_filme  titulo            ano data_lancamento generos duracao duracao_horas
##    <chr>     <chr>           <dbl> <chr>           <chr>     <dbl>         <dbl>
##  1 tt0092699 Broadcast News   1987 1988-04-01      Comedy…     133          2.22
##  2 tt0037931 Murder, He Says  1945 1945-06-23      Comedy…      91          1.52
##  3 tt0183505 Me, Myself & I…  2000 2000-09-08      Comedy      116          1.93
##  4 tt0033945 Never Give a S…  1941 1947-05-02      Comedy…      71          1.18
##  5 tt0372122 Adam & Steve     2005 2007-05-17      Comedy…      99          1.65
##  6 tt3703836 Henry Gamble's…  2015 2016-01-08      Drama        87          1.45
##  7 tt0093640 No Way Out       1987 1987-12-11      Action…     114          1.9 
##  8 tt0494652 Welcome Home, …  2008 2008-02-08      Comedy…     104          1.73
##  9 tt0094006 Some Kind of W…  1987 1988-01-13      Drama,…      95          1.58
## 10 tt1142798 The Family Tha…  2008 2008-09-12      Drama       111          1.85
## # ℹ 11,330 more rows
…
